{
    "user/token": {
        "title": "Token Encodé",
        "updated": "2013-11-13 11:38",
        "changelog": {
            "2013-11-13 10:58": "Mise en ligne de la documentation."
        },
        "short_description": "Token encodé : Principe et méthodes",
        "description": "Un token est une clé représentant la session d'un utilisateur donné. Le token est stocké en base avec une date de péremption :\n Tant que l'utilisateur ne se déconnecte pas ou que son token n'arrive pas à péremption, il est considéré comme authentifié.\n\nLorsque l'API identifie un utilisateur, via identification ou création de compte, elle renvoie un token représentant la session de cet utilisateur à l'application. Ce token est dit \"public\" : Il nécessite d'être réencodé pour pouvoir interroger l'API sur la session qu'il représente.\n\nPour encoder un token, on utilise l'algorithme suivant :\n <code>$encoded_token = sha1(sha1($sso_key).'-'.sha1($token));</code>\n L'application doit donc utiliser cet algorithme pour effectuer d'autres requètes sur cette session (lecture du profil, edition du profil, déconnection...)." ,
        "warning": null,
        "links": [
            {
                "link": "@appendix_user_ssokey@"
            }
        ]
    }
}